<?xml version="1.0" encoding="UTF-8"?>
<!DOCTYPE svg PUBLIC "-//W3C//DTD SVG 1.1//EN" "http://www.w3.org/Graphics/SVG/1.1/DTD/svg11.dtd">
<!-- Creator: CorelDRAW -->
<svg xmlns="http://www.w3.org/2000/svg" xml:space="preserve" width="42px" height="42px" style="shape-rendering:geometricPrecision; text-rendering:geometricPrecision; image-rendering:optimizeQuality; fill-rule:evenodd; clip-rule:evenodd"
viewBox="0 0 42 42"
 xmlns:xlink="http://www.w3.org/1999/xlink">
 <defs>
  <style type="text/css">
   <![CDATA[
    .fil0 {fill:#FCAF17;fill-rule:nonzero}
   ]]>
  </style>
 </defs>
 <g id="Слой_x0020_1">
  <metadata id="CorelCorpID_0Corel-Layer"/>
  <path class="fil0" d="M23.6538 29.2202l-15.7927 -6.83408 -3.3534 5.80708 17.7682 3.4152 1.37793 -2.3882zm-2.19998 6.78079l5.25177 0 4.61539 -7.99289 4.61426 7.99289 5.25092 0 -9.86575 -17.0902 -9.86716 17.0902 0.000566932 0zm-17.7302 -6.44743l-3.72361 6.44686 19.7403 0 1.75069 -3.0328 -17.7674 -3.41406zm26.7402 -12.1261l-9.86943 -17.0961 -3.72814 6.45792 11.8446 13.6741 1.75295 -3.03535 0 -0.000566932zm-2.53787 4.39741l-11.8458 -13.6769 -3.34915 5.80453 13.8164 10.2603 1.37849 -2.38792zm-2.12514 3.67655l-13.8187 -10.2532 -3.37438 5.84535 15.7939 6.83578 1.39919 -2.42788z"/>
 </g>
</svg>
